%YAML 1.1
%TAG !u! tag:unity3d.com,2011:
--- !u!1 &133821000945508548
GameObject:
  m_ObjectHideFlags: 0
  m_CorrespondingSourceObject: {fileID: 0}
  m_PrefabInstance: {fileID: 0}
  m_PrefabAsset: {fileID: 0}
  serializedVersion: 6
  m_Component:
  - component: {fileID: 133821000945508551}
  m_Layer: 0
  m_Name: Tube
  m_TagString: Untagged
  m_Icon: {fileID: 3306451490063965843, guid: 0000000000000000d000000000000000, type: 0}
  m_NavMeshLayer: 0
  m_StaticEditorFlags: 0
  m_IsActive: 1
--- !u!4 &133821000945508551
Transform:
  m_ObjectHideFlags: 0
  m_CorrespondingSourceObject: {fileID: 0}
  m_PrefabInstance: {fileID: 0}
  m_PrefabAsset: {fileID: 0}
  m_GameObject: {fileID: 133821000945508548}
  m_LocalRotation: {x: -0, y: -0, z: -0, w: 1}
  m_LocalPosition: {x: 0, y: 10, z: 0}
  m_LocalScale: {x: 1, y: 1, z: 1}
  m_Children:
  - {fileID: 455378137318105052}
  m_Father: {fileID: 0}
  m_RootOrder: 0
  m_LocalEulerAnglesHint: {x: 0, y: 0, z: 0}
--- !u!1001 &133821000527542327
PrefabInstance:
  m_ObjectHideFlags: 0
  serializedVersion: 2
  m_Modification:
    m_TransformParent: {fileID: 133821000945508551}
    m_Modifications:
    - target: {fileID: -8679921383154817045, guid: 1e36cd4cda99bc64fa05b8ebf76c5d23, type: 3}
      propertyPath: m_RootOrder
      value: 0
      objectReference: {fileID: 0}
    - target: {fileID: -8679921383154817045, guid: 1e36cd4cda99bc64fa05b8ebf76c5d23, type: 3}
      propertyPath: m_LocalScale.z
      value: 0.7791
      objectReference: {fileID: 0}
    - target: {fileID: -8679921383154817045, guid: 1e36cd4cda99bc64fa05b8ebf76c5d23, type: 3}
      propertyPath: m_LocalPosition.x
      value: 0
      objectReference: {fileID: 0}
    - target: {fileID: -8679921383154817045, guid: 1e36cd4cda99bc64fa05b8ebf76c5d23, type: 3}
      propertyPath: m_LocalPosition.y
      value: 0
      objectReference: {fileID: 0}
    - target: {fileID: -8679921383154817045, guid: 1e36cd4cda99bc64fa05b8ebf76c5d23, type: 3}
      propertyPath: m_LocalPosition.z
      value: 0
      objectReference: {fileID: 0}
    - target: {fileID: -8679921383154817045, guid: 1e36cd4cda99bc64fa05b8ebf76c5d23, type: 3}
      propertyPath: m_LocalRotation.w
      value: 0
      objectReference: {fileID: 0}
    - target: {fileID: -8679921383154817045, guid: 1e36cd4cda99bc64fa05b8ebf76c5d23, type: 3}
      propertyPath: m_LocalRotation.x
      value: 0
      objectReference: {fileID: 0}
    - target: {fileID: -8679921383154817045, guid: 1e36cd4cda99bc64fa05b8ebf76c5d23, type: 3}
      propertyPath: m_LocalRotation.y
      value: 0.7071068
      objectReference: {fileID: 0}
    - target: {fileID: -8679921383154817045, guid: 1e36cd4cda99bc64fa05b8ebf76c5d23, type: 3}
      propertyPath: m_LocalRotation.z
      value: 0.7071068
      objectReference: {fileID: 0}
    - target: {fileID: -8679921383154817045, guid: 1e36cd4cda99bc64fa05b8ebf76c5d23, type: 3}
      propertyPath: m_LocalEulerAnglesHint.x
      value: -90
      objectReference: {fileID: 0}
    - target: {fileID: -8679921383154817045, guid: 1e36cd4cda99bc64fa05b8ebf76c5d23, type: 3}
      propertyPath: m_LocalEulerAnglesHint.y
      value: 180
      objectReference: {fileID: 0}
    - target: {fileID: -8679921383154817045, guid: 1e36cd4cda99bc64fa05b8ebf76c5d23, type: 3}
      propertyPath: m_LocalEulerAnglesHint.z
      value: 0
      objectReference: {fileID: 0}
    - target: {fileID: 919132149155446097, guid: 1e36cd4cda99bc64fa05b8ebf76c5d23, type: 3}
      propertyPath: m_Name
      value: Tube
      objectReference: {fileID: 0}
    m_RemovedComponents: []
  m_SourcePrefab: {fileID: 100100000, guid: 1e36cd4cda99bc64fa05b8ebf76c5d23, type: 3}
--- !u!4 &455378137318105052 stripped
Transform:
  m_CorrespondingSourceObject: {fileID: -8679921383154817045, guid: 1e36cd4cda99bc64fa05b8ebf76c5d23, type: 3}
  m_PrefabInstance: {fileID: 133821000527542327}
  m_PrefabAsset: {fileID: 0}
